…
<img src="cross_validation_files/figure-gfm/unnamed-chunk-5-1.png" width="90%" />

## CV using `modelr`

``` r
cv_df = 
  crossv_mc(nonlin_df, 100) 

cv_df %>% 
  pull(train) %>% 
  .[[1]] %>% 
  as_tibble()
```

    ## # A tibble: 79 × 3
    ##       id      x       y
    ##    <int>  <dbl>   <dbl>
    ##  1     1 0.997  -4.14  
    ##  2     2 0.804  -2.05  
    ##  3     4 0.962  -3.62  
    ##  4     5 0.724  -1.05  
    ##  5     7 0.710  -0.652 
    ##  6     8 0.696  -0.884 
    ##  7    10 0.559   0.405 
    ##  8    11 0.673  -0.812 
    ##  9    12 0.796  -1.61  
    ## 10    15 0.0851 -0.0739
    ## # … with 69 more rows
…
